Chapter 3 Pseudonymization | OCA Data Sharing Practicals
…
None remaining (already discretised the age variables when we merged them)

3.4.0.8 Assess re-identification risk criterion (i.e. k-anonymity) using all indirect identifiers.

vars_indirect <- c(
  "location",
  "source_water",
  "source_water_other",
  "sex",
  "age_group"
)

datadict::k_anonymity(dat, vars_indirect, threshold = 5)

## # A tibble: 25 × 6
##    location source_water                             sourc…¹ sex   age_g…²     k
##    <chr>    <chr>                                    <chr>   <chr> <fct>   <int>
##  1 Town A   Direct from canal                        <NA>    Fema… 0-2         1
##  2 Town A   Direct from canal                        <NA>    Male  3-14        1
##  3 Town A   Other (specify)                          Buying… Male  3-14        1
##  4 Town A   Other (specify)                          Buying… Male  15-29       1
##  5 Town A   Tank filled by a truck transporting unt… <NA>    Fema… 3-14        1
##  6 Town A   Tank filled by a truck transporting unt… <NA>    Male  0-2         1
##  7 Town A   Tank filled by a truck transporting unt… <NA>    Male  30-44       1
##  8 Town B   Direct from canal                        <NA>    Male  3-14        1
##  9 Town B   Direct from canal                        <NA>    Male  30-44       1
## 10 Town B   Other (specify)                          Untrea… Male  3-14        1
## # … with 15 more rows, and abbreviated variable names ¹​source_water_other,
## #   ²​age_group
## # ℹ Use `print(n = ...)` to see more rows
…
